Files/Calculator/simulation/qsim/Calculator.msim.vcd
$comment
	File created using the following command:
		vcd file Calculator.msim.vcd -direction
$end
$date
	Sun May 19 16:03:33 2019
$end
$version
	ModelSim Version 10.1d
$end
$timescale
	1ps
$end
$scope module Calculator_vlg_vec_tst $end
$var reg 1 ! CLK $end
$var reg 4 " DIN [3:0] $end
$var reg 4 # MOP [3:0] $end
$var reg 1 $ RUN $end
$var reg 1 % switch $end
$var wire 1 & bit_display [3] $end
$var wire 1 ' bit_display [2] $end
$var wire 1 ( bit_display [1] $end
$var wire 1 ) bit_display [0] $end
$var wire 1 * DP $end
$var wire 1 + Hex [6] $end
$var wire 1 , Hex [5] $end
$var wire 1 - Hex [4] $end
$var wire 1 . Hex [3] $end
$var wire 1 / Hex [2] $end
$var wire 1 0 Hex [1] $end
$var wire 1 1 Hex [0] $end
$var wire 1 2 sampler $end
$scope module i1 $end
$var wire 1 3 gnd $end
$var wire 1 4 vcc $end
$var wire 1 5 unknown $end
$var tri1 1 6 devclrn $end
$var tri1 1 7 devpor $end
$var tri1 1 8 devoe $end
$var wire 1 9 inst2|ALUop[0]~18_combout $end
$var wire 1 : inst2|ALUop[0]~20_combout $end
$var wire 1 ; inst|inst6|Add0~0_combout $end
$var wire 1 < inst|inst6|Add0~1_combout $end
$var wire 1 = inst|inst6|Add0~3_combout $end
$var wire 1 > inst|inst6|Add0~5_combout $end
$var wire 1 ? inst|inst6|Add0~8_combout $end
$var wire 1 @ inst2|Cin~0_combout $end
$var wire 1 A inst2|Mux0~0_combout $end
$var wire 1 B inst|inst2|Output[2]~5_combout $end
$var wire 1 C inst|inst2|Output[2]~10_combout $end
$var wire 1 D CLK~input_o $end
$var wire 1 E CLK~inputclkctrl_outclk $end
$var wire 1 F DP~output_o $end
$var wire 1 G bit_display[3]~output_o $end
$var wire 1 H bit_display[2]~output_o $end
$var wire 1 I bit_display[1]~output_o $end
$var wire 1 J bit_display[0]~output_o $end
$var wire 1 K Hex[6]~output_o $end
$var wire 1 L Hex[5]~output_o $end
$var wire 1 M Hex[4]~output_o $end
$var wire 1 N Hex[3]~output_o $end
$var wire 1 O Hex[2]~output_o $end
$var wire 1 P Hex[1]~output_o $end
$var wire 1 Q Hex[0]~output_o $end
$var wire 1 R MOP[3]~input_o $end
$var wire 1 S MOP[0]~input_o $end
$var wire 1 T inst2|ALUop[1]~26_combout $end
$var wire 1 U MOP[2]~input_o $end
$var wire 1 V MOP[1]~input_o $end
$var wire 1 W inst2|ALUop[1]~15_combout $end
$var wire 1 X inst2|Equal17~1_combout $end
$var wire 1 Y RUN~input_o $end
$var wire 1 Z inst2|out_state[3]~0_combout $end
$var wire 1 [ inst2|Equal16~0_combout $end
$var wire 1 \ inst2|Mux0~1_combout $end
$var wire 1 ] inst2|Equal15~0_combout $end
$var wire 1 ^ inst2|Mux4~0_combout $end
$var wire 1 _ inst2|Mux4~1_combout $end
$var wire 1 ` inst2|Equal17~0_combout $end
$var wire 1 a inst2|Equal18~0_combout $end
$var wire 1 b inst2|ALUop[1]~16_combout $end
$var wire 1 c inst2|ALUop[0]~21_combout $end
$var wire 1 d inst2|ALUop[0]~22_combout $end
$var wire 1 e inst2|ALUop[0]~19_combout $end
$var wire 1 f inst2|Y_Select~10_combout $end
$var wire 1 g inst2|Load_B~2_combout $end
$var wire 1 h inst2|ALUop[0]~24_combout $end
$var wire 1 i inst2|ALUop[0]~25_combout $end
$var wire 1 j inst|inst5|Output~23_combout $end
$var wire 1 k inst2|ALUop[2]~36_combout $end
$var wire 1 l inst2|ALUop[2]~37_combout $end
$var wire 1 m DIN[3]~input_o $end
$var wire 1 n inst2|Equal16~1_combout $end
$var wire 1 o inst2|Load_B~4_combout $end
$var wire 1 p inst2|ALUop[0]~27_combout $end
$var wire 1 q inst2|ALUop[0]~29_combout $end
$var wire 1 r inst2|Input_Select[0]~2_combout $end
$var wire 1 s inst2|ALUop[0]~28_combout $end
$var wire 1 t inst2|Input_Select[1]~0_combout $end
$var wire 1 u inst2|ALUop[0]~23_combout $end
$var wire 1 v inst2|ALUop[0]~30_combout $end
$var wire 1 w inst2|ALUop[0]~32_combout $end
$var wire 1 x inst2|Input_Select[1]~1_combout $end
$var wire 1 y inst|inst|Mux0~0_combout $end
$var wire 1 z inst2|ALUop[0]~34_combout $end
$var wire 1 { inst2|ALUop[0]~31_combout $end
$var wire 1 | inst2|ALUop[0]~35_combout $end
$var wire 1 } inst2|ALUop[0]~10_combout $end
$var wire 1 ~ inst2|ALUop[0]~39_combout $end
$var wire 1 !! inst2|ALUop[0]~38_combout $end
$var wire 1 "! inst2|out_state[1]~1_combout $end
$var wire 1 #! inst2|out_state[3]~2_combout $end
$var wire 1 $! inst2|ALUop[0]~33_combout $end
$var wire 1 %! inst2|Input_Select[2]~3_combout $end
$var wire 1 &! inst2|Input_Select[2]~4_combout $end
$var wire 1 '! inst|inst6|Add0~2_combout $end
$var wire 1 (! inst|inst|Mux0~1_combout $end
$var wire 1 )! inst|inst2|Output~2_combout $end
$var wire 1 *! inst2|Reset~0_combout $end
$var wire 1 +! inst|inst2|Output[2]~3_combout $end
$var wire 1 ,! inst|inst2|Output[2]~4_combout $end
$var wire 1 -! inst|inst2|Output[2]~6_combout $end
$var wire 1 .! inst|inst2|Output~7_combout $end
$var wire 1 /! inst|inst|Mux1~1_combout $end
$var wire 1 0! inst|inst|Mux1~2_combout $end
$var wire 1 1! inst|inst6|Add0~4_combout $end
$var wire 1 2! DIN[1]~input_o $end
$var wire 1 3! DIN[0]~input_o $end
$var wire 1 4! inst2|ALUop[1]~17_combout $end
$var wire 1 5! inst2|Cin~1_combout $end
$var wire 1 6! inst|inst6|Add0~10_cout $end
$var wire 1 7! inst|inst6|Add0~11_combout $end
$var wire 1 8! inst|inst|Mux3~2_combout $end
$var wire 1 9! inst|inst5|Output[0]~3_combout $end
$var wire 1 :! inst2|Load_B~3_combout $end
$var wire 1 ;! inst2|Y_Select~7_combout $end
$var wire 1 <! inst2|Y_Select~14_combout $end
$var wire 1 =! inst2|Y_Select~13_combout $end
$var wire 1 >! inst2|Y_Select~11_combout $end
$var wire 1 ?! inst2|Y_Select~12_combout $end
$var wire 1 @! inst|inst4|f[0]~3_combout $end
$var wire 1 A! inst|inst5|Output~27_combout $end
$var wire 1 B! inst|inst5|Output[1]~15_combout $end
$var wire 1 C! inst|inst5|Output[1]~16_combout $end
$var wire 1 D! inst|inst5|Output[1]~12_combout $end
$var wire 1 E! inst|inst5|Output[1]~13_combout $end
$var wire 1 F! inst|inst5|Output[1]~21_combout $end
$var wire 1 G! inst|inst5|Output[1]~22_combout $end
$var wire 1 H! inst|inst5|Output[1]~28_combout $end
$var wire 1 I! inst|inst|Mux3~0_combout $end
$var wire 1 J! inst|inst|Mux2~1_combout $end
$var wire 1 K! inst|inst|Mux2~2_combout $end
$var wire 1 L! inst|inst2|Output~8_combout $end
$var wire 1 M! inst|inst|Mux3~1_combout $end
$var wire 1 N! inst|inst2|Output~9_combout $end
$var wire 1 O! inst|inst6|Add0~7_combout $end
$var wire 1 P! inst|inst6|Add0~12 $end
$var wire 1 Q! inst|inst6|Add0~13_combout $end
$var wire 1 R! inst|inst|Mux2~3_combout $end
$var wire 1 S! inst|inst5|Output[1]~2_combout $end
$var wire 1 T! inst|inst4|f[1]~2_combout $end
$var wire 1 U! inst|inst5|Output~26_combout $end
$var wire 1 V! inst|inst|Mux2~0_combout $end
$var wire 1 W! inst|inst6|Add0~6_combout $end
$var wire 1 X! inst|inst6|Add0~14 $end
$var wire 1 Y! inst|inst6|Add0~16 $end
$var wire 1 Z! inst|inst6|Add0~18 $end
$var wire 1 [! inst|inst6|Add0~19_combout $end
$var wire 1 \! switch~input_o $end
$var wire 1 ]! inst3|f~0_combout $end
$var wire 1 ^! inst3|f~1_combout $end
$var wire 1 _! inst|inst|Mux0~2_combout $end
$var wire 1 `! inst|inst6|Add0~17_combout $end
$var wire 1 a! inst|inst5|Output[3]~0_combout $end
$var wire 1 b! inst|inst4|f[3]~0_combout $end
$var wire 1 c! inst|inst5|Output~24_combout $end
$var wire 1 d! inst4|f[3]~0_combout $end
$var wire 1 e! DIN[2]~input_o $end
$var wire 1 f! inst|inst|Mux1~0_combout $end
$var wire 1 g! inst|inst|Mux1~3_combout $end
$var wire 1 h! inst|inst6|Add0~15_combout $end
$var wire 1 i! inst|inst5|Output[2]~1_combout $end
$var wire 1 j! inst|inst4|f[2]~1_combout $end
$var wire 1 k! inst|inst5|Output~25_combout $end
$var wire 1 l! inst2|out_state[3]~3_combout $end
$var wire 1 m! inst2|out_state[3]~4_combout $end
$var wire 1 n! inst2|out_state[3]~4clkctrl_outclk $end
$var wire 1 o! inst4|f[2]~1_combout $end
$var wire 1 p! inst2|out_state[1]~5_combout $end
$var wire 1 q! inst4|f[1]~2_combout $end
$var wire 1 r! inst4|f[0]~3_combout $end
$var wire 1 s! inst5|Mux0~0_combout $end
$var wire 1 t! inst5|Mux1~0_combout $end
$var wire 1 u! inst5|Mux2~0_combout $end
$var wire 1 v! inst5|Mux3~0_combout $end
$var wire 1 w! inst5|Mux4~0_combout $end
$var wire 1 x! inst5|Mux5~0_combout $end
$var wire 1 y! inst5|Mux6~0_combout $end
$var wire 1 z! inst|inst5|Output [3] $end
$var wire 1 {! inst|inst5|Output [2] $end
$var wire 1 |! inst|inst5|Output [1] $end
$var wire 1 }! inst|inst5|Output [0] $end
$var wire 1 ~! inst|inst2|Output [3] $end
$var wire 1 !" inst|inst2|Output [2] $end
$var wire 1 "" inst|inst2|Output [1] $end
$var wire 1 #" inst|inst2|Output [0] $end
$var wire 1 $" inst2|y_present [4] $end
$var wire 1 %" inst2|y_present [3] $end
$var wire 1 &" inst2|y_present [2] $end
$var wire 1 '" inst2|y_present [1] $end
$var wire 1 (" inst2|y_present [0] $end
$var wire 1 )" inst2|out_state [3] $end
$var wire 1 *" inst2|out_state [2] $end
$var wire 1 +" inst2|out_state [1] $end
$var wire 1 ," inst2|out_state [0] $end
$upscope $end
$upscope $end
$enddefinitions $end
#0
$dumpvars
0!
b10 "
b0 #
0$
1%
0)
0(
0'
0&
1*
01
00
0/
0.
0-
0,
1+
x2
03
14
x5
16
17
18
09
0:
0;
0<
0=
0>
1?
0@
0A
0B
1C
0D
0E
1F
0G
0H
0I
0J
1K
0L
0M
0N
0O
0P
0Q
0R
0S
0T
0U
0V
1W
0X
0Y
1Z
0[
0\
1]
1^
1_
0`
0a
0b
0c
0d
0e
0f
0g
0h
0i
0j
0k
0l
0m
0n
0o
0p
0q
0r
0s
0t
0u
0v
0w
0x
0y
0z
0{
0|
0}
0~
0!!
1"!
0#!
0$!
0%!
0&!
1'!
0(!
0)!
0*!
1+!
1,!
0-!
0.!
0/!
00!
11!
12!
03!
04!
05!
06!
17!
08!
09!
0:!
0;!
0<!
0=!
0>!
0?!
0@!
0A!
1B!
1C!
1D!
1E!
1F!
1G!
0H!
0I!
0J!
0K!
0L!
0M!
0N!
0O!
1P!
1Q!
0R!
0S!
0T!
0U!
0V!
1W!
0X!
1Y!
0Z!
0[!
1\!
1]!
1^!
0_!
1`!
0a!
0b!
0c!
0d!
0e!
0f!
0g!
1h!
0i!
0j!
0k!
0l!
1m!
1n!
0o!
0p!
0q!
0r!
0s!
0t!
0u!
0v!
0w!
0x!
0y!
0}!
0|!
0{!
0z!
0#"
0""
0!"
0~!
0("
0'"
0&"
0%"
0$"
0,"
0+"
0*"
z)"
$end
#5000
1!
1D
1E
02
#10000
0!
0D
0E
12
#15000
1!
1D
1E
02
#20000
0!
0D
0E
12
#25000
1!
1D
1E
02
#30000
0!
0D
0E
12
#35000
1!
1D
1E
02
#40000
b1 #
0!
1S
0D
0E
12
0W
1:
#45000
1!
1D
1E
02
#50000
0!
0D
0E
12
#55000
1!
1D
1E
02
#60000
1$
0!
1Y
0D
0E
12
#65000
1!
1D
1E
02
1'"
1("
0D!
0B!
1}
1n
0]
1[
0F!
1!!
1s
1g
1z
0C
0G!
1$!
1*!
1w
1,"
1|
1H!
1-!
1r!
1J
1)
1y!
1v!
1u!
1t!
1Q
1N
1M
1L
11
1.
1-
1,
#70000
0!
0D
0E
12
#75000
1!
1D
1E
02
0'"
1&"
1D!
1B!
0n
1`
0[
0H!
0Z
1F!
0!!
0s
0"!
1X
0m!
1#!
0z
0g
1C
0n!
1G!
0$!
0*!
0w
1p!
1m!
0#!
0|
1n!
0-!
1+"
0,"
1q!
0r!
1s!
1I
0J
1(
0)
0y!
1w!
0v!
0u!
0K
0Q
1O
0N
0M
0+
01
1/
0.
0-
#80000
0!
0D
0E
12
#85000
1!
1D
1E
02
0&"
1%"
1;!
1a
0X
0E!
0C!
1A
1<!
1g
1b
1\
1,"
1r!
1J
1)
0w!
1u!
0O
1M
0/
1-
#90000
0!
0D
0E
12
#95000
1!
1D
1E
02
1$"
0%"
0<!
0`
0_
1E!
1C!
0;!
1"!
0}
0a
0^
1Z
0p!
0m!
1#!
0g
0b
1l!
0n!
1m!
1_
1n!
0,"
0+"
1*"
0r!
0q!
1o!
0J
0I
1H
0)
0(
1'
1y!
1v!
0t!
1Q
1N
0L
11
1.
0,
#100000
0!
0D
0E
12
#105000
1!
1D
1E
02
#110000
0!
0D
0E
12
#115000
1!
1D
1E
02
#120000
0$
0!
0Y
0D
0E
12
0("
0$"
0l!
1^
1]
0A
0#!
0\
0*"
0o!
0s!
0H
0'
0y!
0v!
0u!
1K
0Q
0N
0M
1+
01
0.
0-
#125000
1!
1D
1E
02
#130000
0!
0D
0E
12
#135000
1!
1D
1E
02
#140000
b0 #
0!
0S
0D
0E
12
1W
0:
#145000
1!
1D
1E
02
#150000
0!
0D
0E
12
#155000
1!
1D
1E
02
#160000
b10 #
b1010 "
b1110 "
b1111 "
0!
13!
1e!
1m
1V
0D
0E
12
0F!
0+!
1k
1f
0W
1:
0,!
#165000
1!
1D
1E
02
#170000
0!
0D
0E
12
#175000
1!
1D
1E
02
#180000
1$
0!
1Y
0D
0E
12
#185000
1!
1D
1E
02
1'"
1("
0E!
1}
1n
0]
1[
1!!
1s
1g
1z
0C
1$!
1w
1t
1,"
1|
1-!
1%!
1x
1r!
1&!
1f!
1V!
1I!
1y
1J
1)
1y!
1v!
1u!
1t!
1g!
1_!
0W!
1R!
1N!
1L!
18!
01!
1.!
1)!
0'!
0?
1Q
1N
1M
1L
11
1.
1-
1,
1k!
1i!
1c!
1a!
1X!
0Q!
1U!
1S!
1A!
19!
0Y!
0h!
1Z!
0`!
0P!
07!
1h!
1`!
1[!
1Q!
#190000
0!
0D
0E
12
#195000
1!
1D
1E
02
0'"
1&"
1#"
1""
1!"
1~!
1E!
0n
1`
0[
0Z
1M!
1J!
1/!
1K!
10!
0!!
0s
0"!
1X
0m!
1#!
0z
0g
1C
0n!
0$!
0w
0t
1p!
1m!
0#!
0|
0-!
1n!
0%!
0x
1+"
0,"
0&!
0f!
0V!
0I!
1(!
0y
1q!
0r!
1s!
1I
0J
1(
0)
0y!
1w!
0v!
0u!
0K
0Q
1O
0N
0M
0+
01
1/
0.
0-
#200000
0!
0D
0E
12
#205000
1!
1D
1E
02
0&"
1%"
1;!
1a
0X
0E!
0C!
1A
1<!
1g
1b
1\
1,"
1r!
1J
1)
0w!
1u!
0O
1M
0/
1-
#210000
0!
0D
0E
12
#215000
1!
1D
1E
02
1$"
0%"
0<!
0`
0_
1E!
1C!
0;!
1"!
0}
0a
0^
1Z
0p!
0m!
1#!
0g
0b
1l!
0n!
1m!
1_
1n!
0,"
0+"
1*"
0r!
0q!
1o!
0J
0I
1H
0)
0(
1'
1y!
1v!
0t!
1Q
1N
0L
11
1.
0,
#220000
0!
0D
0E
12
#225000
1!
1D
1E
02
#230000
0!
0D
0E
12
#235000
1!
1D
1E
02
#240000
0$
0!
0Y
0D
0E
12
0("
0$"
0l!
1^
1]
0A
0#!
0\
0*"
0o!
0s!
0H
0'
0y!
0v!
0u!
1K
0Q
0N
0M
1+
01
0.
0-
#245000
1!
1D
1E
02
#250000
0!
0D
0E
12
#255000
1!
1D
1E
02
#260000
b0 #
0!
0V
0D
0E
12
0G!
1F!
1+!
0k
0f
1W
0:
1G!
1,!
1-!
0-!
#265000
1!
1D
1E
02
#270000
b111 "
b11 "
b10 "
0!
03!
0e!
0m
0D
0E
12
#275000
1!
1D
1E
02
#280000
0!
0D
0E
12
#285000
1!
1D
1E
02
#290000
b1 #
b11 #
0!
1S
1V
0D
0E
12
1:!
0+!
1%!
1t
1k
0W
0F!
#295000
1!
1D
1E
02
#300000
1$
0!
1Y
0D
0E
12
#305000
1!
1D
1E
02
1'"
1("
0D!
0B!
1}
1n
0]
1[
0G!
1!!
1s
1g
1z
0C
1H!
1$!
1w
1,"
1|
1x
1&!
1r!
1V!
0(!
0g!
0_!
1W!
0R!
0N!
0L!
08!
11!
0.!
0)!
1'!
1?
1J
1)
1y!
1v!
1u!
1t!
0W!
1R!
1L!
0k!
0i!
0c!
0a!
0Q!
0U!
0S!
0A!
09!
0h!
0`!
1P!
17!
1Q
1N
1M
1L
11
1.
1-
1,
1U!
1S!
#310000
0!
0D
0E
12
#315000
1!
1D
1E
02
0'"
1&"
1|!
1D!
1B!
0n
1`
0[
0H!
0Z
1G!
0!!
0s
0"!
1X
0m!
1#!
0z
0g
1C
0n!
0$!
0w
1p!
1m!
0#!
0|
1n!
0x
1+"
0&!
0,"
1(!
1g!
1N!
18!
01!
1.!
0?
1q!
0r!
1_!
1)!
0'!
1k!
1i!
1A!
19!
1h!
0P!
07!
1s!
1I
0J
1(
0)
0y!
1w!
0v!
0u!
1c!
1a!
1`!
1Q!
0K
0Q
1O
0N
0M
0+
01
1/
0.
0-
#320000
0!
0D
0E
12
#325000
1!
1D
1E
02
0&"
1%"
1;!
1a
0X
0E!
0C!
1A
1<!
1g
1b
1\
1,"
1r!
1J
1)
0w!
1u!
0O
1M
0/
1-
#330000
0!
0D
0E
12
#335000
1!
1D
1E
02
1$"
0%"
0<!
0`
0_
1E!
1C!
0;!
1"!
0}
0a
0^
1Z
0p!
0m!
1#!
0g
0b
1l!
0n!
1m!
1_
1n!
0,"
0+"
1*"
0r!
0q!
1o!
0J
0I
1H
0)
0(
1'
1y!
1v!
0t!
1Q
1N
0L
11
1.
0,
#340000
0!
0D
0E
12
#345000
1!
1D
1E
02
#350000
0!
0D
0E
12
#355000
1!
1D
1E
02
#360000
0$
0!
0Y
0D
0E
12
0("
0$"
0l!
1^
1]
0A
0#!
0\
0*"
0o!
0s!
0H
0'
0y!
0v!
0u!
1K
0Q
0N
0M
1+
01
0.
0-
#365000
1!
1D
1E
02
#370000
0!
0D
0E
12
#375000
1!
1D
1E
02
#380000
b10 #
b0 #
0!
0S
0V
0D
0E
12
0:!
0,!
1+!
1&!
0%!
1x
0t
0k
1W
0G!
1F!
1-!
1,!
0g!
0_!
0N!
08!
11!
0.!
0)!
1'!
1?
0&!
0(!
0x
1G!
0-!
0k!
0i!
0c!
0a!
0A!
09!
0h!
0`!
1P!
17!
1g!
1N!
18!
01!
1.!
0?
1(!
1i!
0Q!
19!
1k!
1A!
1h!
0P!
07!
1_!
1)!
0'!
1Q!
1c!
1a!
1`!
#385000
1!
1D
1E
02
#390000
0!
0D
0E
12
#395000
1!
1D
1E
02
#400000
0!
0D
0E
12
#405000
1!
1D
1E
02
#410000
0!
0D
0E
12
#415000
1!
1D
1E
02
#420000
1$
0!
1Y
0D
0E
12
#425000
1!
1D
1E
02
1'"
1("
0E!
1}
1n
0]
1[
1!!
1s
1g
1b
1z
0C
1$!
1w
1,"
1|
1r!
1J
1)
1y!
1v!
1u!
1t!
1Q
1N
1M
1L
11
1.
1-
1,
#430000
0!
0D
0E
12
#435000
1!
1D
1E
02
0'"
1&"
1E!
0n
1`
0[
0Z
0!!
0s
0"!
1X
0m!
1#!
0z
0g
0b
1C
0n!
0$!
0w
1p!
1m!
0#!
0|
1n!
1+"
0,"
1q!
0r!
1s!
1I
0J
1(
0)
0y!
1w!
0v!
0u!
0K
0Q
1O
0N
0M
0+
01
1/
0.
0-
#440000
0!
0D
0E
12
#445000
1!
1D
1E
02
0&"
1%"
1;!
1a
0X
0E!
0C!
1A
1<!
1g
1b
1\
1,"
1r!
1J
1)
0w!
1u!
0O
1M
0/
1-
#450000
0!
0D
0E
12
#455000
1!
1D
1E
02
1$"
0%"
0<!
0`
0_
1E!
1C!
0;!
1"!
0}
0a
0^
1Z
0p!
0m!
1#!
0g
0b
1l!
0n!
1m!
1_
1n!
0,"
0+"
1*"
0r!
0q!
1o!
0J
0I
1H
0)
0(
1'
1y!
1v!
0t!
1Q
1N
0L
11
1.
0,
#460000
0!
0D
0E
12
#465000
1!
1D
1E
02
#470000
0!
0D
0E
12
#475000
1!
1D
1E
02
#480000
0$
0!
0Y
0D
0E
12
0("
0$"
0l!
1^
1]
0A
0#!
0\
0*"
0o!
0s!
0H
0'
0y!
0v!
0u!
1K
0Q
0N
0M
1+
01
0.
0-
#485000
1!
1D
1E
02
#490000
0!
0D
0E
12
#495000
1!
1D
1E
02
#500000
0!
0D
0E
12
#505000
1!
1D
1E
02
#510000
0!
0D
0E
12
#515000
1!
1D
1E
02
#520000
b1000 #
0!
1R
0D
0E
12
1p
1c
1T
19
#525000
1!
1D
1E
02
#530000
0!
0D
0E
12
#535000
1!
1D
1E
02
#540000
1$
0!
1Y
0D
0E
12
#545000
1!
1D
1E
02
1'"
1("
0E!
1}
1n
0]
1[
0F!
1~
1g
1e
1b
0G!
1>!
1%!
1,"
1@
1i
0[!
14!
1H!
1?!
1&!
15!
0k!
0c!
0U!
1O!
0A!
1j
1>
1=
1<
1;
1r!
1j!
1b!
1T!
0O!
1@!
0>
0=
0<
0g!
0_!
1W!
0N!
08!
0.!
0)!
16!
1P!
17!
0Q!
0h!
0`!
09!
1J
1)
1y!
1v!
1u!
1t!
1U!
0P!
0X!
1Q!
1h!
1`!
0i!
0a!
19!
0S!
1Q
1N
1M
1L
11
1.
1-
1,
1X!
0Q!
0h!
1S!
1i!
1a!
1h!
0S!
0i!
1i!
#550000
0!
0D
0E
12
#555000
1!
1D
1E
02
0'"
1&"
1{!
1z!
0|!
1}!
1E!
0n
1`
0[
0H!
0Z
1f!
1y
0V!
1I!
1F!
0"!
1X
0m!
1#!
0g
0e
0b
1g!
11!
1.!
1_!
1)!
1'!
0W!
0R!
0L!
1N!
18!
1?
0n!
1G!
1p!
1m!
0#!
0+!
0@
0i
1[!
04!
0j
1k!
0h!
1c!
0`!
1Q!
0U!
1A!
07!
1n!
1+"
0,!
05!
1U!
1O!
1>
1=
1<
0;
1W!
01!
0'!
0?
0i!
0a!
1S!
09!
0,"
1-!
06!
0X!
1i!
1a!
0S!
19!
1q!
0r!
1P!
17!
1Y!
1h!
1s!
1I
0J
1(
0)
0y!
1w!
0v!
0u!
0Q!
0Z!
1`!
0K
0Q
1O
0N
0M
0+
01
1/
0.
0-
0[!
#560000
0!
0D
0E
12
#565000
1!
1D
1E
02
0&"
1%"
0""
1;!
1q
1d
1a
0X
0E!
0C!
1A
0T!
0J!
0>
1<!
1t
1$!
1z
1g
1e
1b
1+!
0F!
1\
0U!
0K!
1Q!
1x
1|
1,"
1@
1i
1[!
14!
1,!
0G!
0f!
1V!
0M!
1K!
0I!
0(!
0y
15!
1U!
0O!
1j
1>
0=
0<
1;
0-!
1H!
1r!
0g!
0.!
1R!
1L!
0N!
08!
0_!
0)!
16!
0P!
07!
0Q!
0Y!
0h!
1Z!
0`!
1S!
1J
1)
0w!
1u!
0k!
0i!
0U!
0S!
0A!
09!
0c!
0a!
17!
1Q!
1`!
0[!
0O
1M
0/
1-
19!
1S!
1a!
#570000
0!
0D
0E
12
#575000
1!
1D
1E
02
1$"
0%"
0{!
1|!
0H!
0<!
0~
0`
0_
1E!
1C!
0;!
1"!
0}
0q
0d
0a
0^
1Z
0>!
0%!
1F!
0p!
0m!
1#!
0t
0$!
0z
0g
0e
0b
1l!
0n!
0?!
0&!
1G!
0x
0|
0@
0i
1[!
04!
0j
1m!
1_
1n!
0j!
0b!
0@!
0>
1g!
0W!
1.!
1'!
1?
1M!
0K!
1I!
1(!
1y
05!
1k!
1c!
1U!
1A!
0;
0,"
0+"
1*"
0c!
0A!
1X!
1i!
0`!
07!
1N!
18!
0?
1W!
0R!
0L!
1_!
1)!
0'!
06!
0a!
09!
0r!
0q!
1o!
1h!
1a!
19!
1A!
0Q!
0U!
0S!
1c!
1`!
0J
0I
1H
0)
0(
1'
1y!
1v!
0t!
1Q
1N
0L
11
1.
0,
#580000
0!
0D
0E
12
#585000
1!
1D
1E
02
#590000
0!
0D
0E
12
#595000
1!
1D
1E
02
#600000
0$
0!
0Y
0D
0E
12
0("
0$"
0l!
1^
1]
0A
0#!
0\
0*"
0o!
0s!
0H
0'
0y!
0v!
0u!
1K
0Q
0N
0M
1+
01
0.
0-
#605000
1!
1D
1E
02
#610000
0!
0D
0E
12
#615000
1!
1D
1E
02
#620000
b0 #
0!
0R
0D
0E
12
0p
0c
0T
09
#625000
1!
1D
1E
02
#630000
0!
0D
0E
12
#635000
1!
1D
1E
02
#640000
0!
0D
0E
12
#645000
1!
1D
1E
02
#650000
b1 #
0!
1S
0D
0E
12
0W
1:
#655000
1!
1D
1E
02
#660000
1$
0!
1Y
0D
0E
12
#665000
1!
1D
1E
02
1'"
1("
0D!
0B!
1}
1n
0]
1[
0F!
1!!
1s
1g
1z
0C
0G!
1$!
1*!
1w
1,"
1|
1H!
0N!
0.!
1-!
0)!
1r!
1J
1)
1y!
1v!
1u!
1t!
1Q
1N
1M
1L
11
1.
1-
1,
#670000
0!
0D
0E
12
#675000
1!
1D
1E
02
0'"
1&"
0z!
0|!
0#"
0}!
0!"
0~!
1D!
1B!
0n
1`
0[
0H!
0Z
0y
0V!
0M!
0I!
0/!
0(!
1F!
0!!
0s
0"!
1X
0m!
1#!
0z
0g
1C
0_!
1'!
08!
1?
00!
0n!
1G!
0$!
0*!
0w
1p!
1m!
0#!
0|
0c!
0a!
0`!
0A!
09!
1P!
17!
0g!
11!
1n!
0-!
1+"
0X!
1Q!
0k!
0i!
0h!
0,"
1Y!
1h!
1q!
0r!
0Z!
1`!
1s!
1I
0J
1(
0)
0y!
1w!
0v!
0u!
0[!
0K
0Q
1O
0N
0M
0+
01
1/
0.
0-
#680000
0!
0D
0E
12
#685000
1!
1D
1E
02
0&"
1%"
1;!
1a
0X
0E!
0C!
1A
1<!
1g
1b
1\
1,"
1r!
1J
1)
0w!
1u!
0O
1M
0/
1-
#690000
0!
0D
0E
12
#695000
1!
1D
1E
02
1$"
0%"
0<!
0`
0_
1E!
1C!
0;!
1"!
0}
0a
0^
1Z
0p!
0m!
1#!
0g
0b
1l!
0n!
1m!
1_
1n!
0,"
0+"
1*"
0r!
0q!
1o!
0J
0I
1H
0)
0(
1'
1y!
1v!
0t!
1Q
1N
0L
11
1.
0,
#700000
0!
0D
0E
12
#705000
1!
1D
1E
02
#710000
0!
0D
0E
12
#715000
1!
1D
1E
02
#720000
0$
0!
0Y
0D
0E
12
0("
0$"
0l!
1^
1]
0A
0#!
0\
0*"
0o!
0s!
0H
0'
0y!
0v!
0u!
1K
0Q
0N
0M
1+
01
0.
0-
#725000
1!
1D
1E
02
#730000
b0 #
0!
0S
0D
0E
12
1W
0:
#735000
1!
1D
1E
02
#740000
0!
0D
0E
12
#745000
1!
1D
1E
02
#750000
0!
0D
0E
12
#755000
1!
1D
1E
02
#760000
0!
0D
0E
12
#765000
1!
1D
1E
02
#770000
0!
0D
0E
12
#775000
1!
1D
1E
02
#780000
1$
0!
1Y
0D
0E
12
#785000
1!
1D
1E
02
1'"
1("
0E!
1}
1n
0]
1[
1!!
1s
1g
1b
1z
0C
1$!
1w
1,"
1|
1r!
1J
1)
1y!
1v!
1u!
1t!
1Q
1N
1M
1L
11
1.
1-
1,
#790000
0!
0D
0E
12
#795000
1!
1D
1E
02
0'"
1&"
1E!
0n
1`
0[
0Z
0!!
0s
0"!
1X
0m!
1#!
0z
0g
0b
1C
0n!
0$!
0w
1p!
1m!
0#!
0|
1n!
1+"
0,"
1q!
0r!
1s!
1I
0J
1(
0)
0y!
1w!
0v!
0u!
0K
0Q
1O
0N
0M
0+
01
1/
0.
0-
#800000
0!
0D
0E
12
#805000
1!
1D
1E
02
0&"
1%"
1;!
1a
0X
0E!
0C!
1A
1<!
1g
1b
1\
1,"
1r!
1J
1)
0w!
1u!
0O
1M
0/
1-
#810000
0!
0D
0E
12
#815000
1!
1D
1E
02
1$"
0%"
0<!
0`
0_
1E!
1C!
0;!
1"!
0}
0a
0^
1Z
0p!
0m!
1#!
0g
0b
1l!
0n!
1m!
1_
1n!
0,"
0+"
1*"
0r!
0q!
1o!
0J
0I
1H
0)
0(
1'
1y!
1v!
0t!
1Q
1N
0L
11
1.
0,
#820000
0!
0D
0E
12
#825000
1!
1D
1E
02
#830000
0!
0D
0E
12
#835000
1!
1D
1E
02
#840000
0$
0!
0Y
0D
0E
12
0("
0$"
0l!
1^
1]
0A
0#!
0\
0*"
0o!
0s!
0H
0'
0y!
0v!
0u!
1K
0Q
0N
0M
1+
01
0.
0-
#845000
1!
1D
1E
02
#850000
0!
0D
0E
12
#855000
1!
1D
1E
02
#860000
0!
0D
0E
12
#865000
1!
1D
1E
02
#870000
0!
0D
0E
12
#875000
1!
1D
1E
02
#880000
0!
0D
0E
12
#885000
1!
1D
1E
02
#890000
0!
0D
0E
12
#895000
1!
1D
1E
02
#900000
1$
0!
1Y
0D
0E
12
